{
  "type": "FeatureCollection",
  "features": [
    {
      "type": "Feature",
      "properties": {},
      "geometry": {
        "type": "Polygon",
        "coordinates": [
          [
            [
              55.721282958984375,
              -21.193374899371197
            ],
            [
              55.647125244140625,
              -21.236902399759177
            ],
            [
              55.66772460937499,
              -21.323918838669897
            ],
            [
              55.80230712890625,
              -21.303449014561657
            ],
            [
              55.81604003906249,
              -21.220261047754978
            ],
            [
              55.721282958984375,
              -21.193374899371197
            ]
          ]
        ]
      }
    }
  ]
}
